{
  "version": 2,
  "projects": {
    "main-ui": {
      "root": "libs/main-ui",
      "sourceRoot": "libs/main-ui/src",
      "projectType": "library",
      "generators": {},
      "targets": {
        "lint": {
          "executor": "@nrwl/linter:eslint",
          "options": {
            "lintFilePatterns": [
              "libs/main-ui/**/*.{ts,tsx,js,jsx}"
            ]
          }
        },
        "test": {
          "executor": "@nrwl/jest:jest",
          "outputs": [
            "coverage/libs/main-ui"
          ],
          "options": {
            "jestConfig": "libs/main-ui/jest.config.js",
            "passWithNoTests": true
          }
        }
      }
    },
    "mobile": {
      "root": "apps/mobile",
      "sourceRoot": "apps/mobile/src",
      "projectType": "application",
      "generators": {},
      "targets": {
        "bundle": {
          "executor": "nx-react-native-expo:bundle",
          "options": {}
        },
        "start": {
          "executor": "nx-react-native-expo:start",
          "options": {}
        },
        "run-ios": {
          "executor": "nx-react-native-expo:run-ios",
          "options": {}
        },
        "run-android": {
          "executor": "nx-react-native-expo:run-android",
          "options": {}
        },
        "run-web": {
          "executor": "nx-react-native-expo:run-web",
          "options": {}
        },
        "publish": {
          "executor": "nx-react-native-expo:publish",
          "options": {}
        },
        "lint": {
          "executor": "@nrwl/linter:eslint",
          "options": {
            "lintFilePatterns": [
              "apps/mobile/**/*.{js,ts,tsx}"
            ]
          }
        },
        "test": {
          "executor": "@nrwl/jest:jest",
          "outputs": [
            "coverage/apps/mobile"
          ],
          "options": {
            "jestConfig": "apps/mobile/jest.config.js",
            "passWithNoTests": true
          }
        }
      }
    },
    "desktop-ui": {
      "root": "apps/desktop-ui",
      "sourceRoot": "apps/desktop-ui/src",
      "projectType": "application",
      "generators": {},
      "targets": {
        "build": {
          "executor": "@nrwl/web:build",
          "options": {
            "outputPath": "dist/apps/desktop-ui",
            "index": "apps/desktop-ui/src/index.html",
            "main": "apps/desktop-ui/src/main.tsx",
            "polyfills": "apps/desktop-ui/src/polyfills.ts",
            "tsConfig": "apps/desktop-ui/tsconfig.app.json",
            "assets": [
              "apps/desktop-ui/src/favicon.ico",
              "apps/desktop-ui/src/assets"
            ],
            "styles": [
              "apps/desktop-ui/src/styles.scss"
            ],
            "scripts": [],
            "webpackConfig": "@nrwl/react/plugins/webpack"
          },
          "configurations": {
            "production": {
              "fileReplacements": [
                {
                  "replace": "apps/desktop-ui/src/environments/environment.ts",
                  "with": "apps/desktop-ui/src/environments/environment.prod.ts"
                }
              ],
              "optimization": true,
              "outputHashing": "all",
              "sourceMap": false,
              "extractCss": true,
              "namedChunks": false,
              "extractLicenses": true,
              "vendorChunk": false,
              "budgets": [
                {
                  "type": "initial",
                  "maximumWarning": "2mb",
                  "maximumError": "5mb"
                }
              ]
            }
          }
        },
        "serve": {
          "executor": "@nrwl/web:dev-server",
          "options": {
            "buildTarget": "desktop-ui:build"
          },
          "configurations": {
            "production": {
              "buildTarget": "desktop-ui:build:production"
            }
          }
        },
        "lint": {
          "executor": "@nrwl/linter:eslint",
          "options": {
            "lintFilePatterns": [
              "apps/desktop-ui/**/*.{ts,tsx,js,jsx}"
            ]
          }
        },
        "test": {
          "executor": "@nrwl/jest:jest",
          "outputs": [
            "coverage/apps/desktop-ui"
          ],
          "options": {
            "jestConfig": "apps/desktop-ui/jest.config.js",
            "passWithNoTests": true
          }
        }
      }
    },
    "desktop-ui-e2e": {
      "root": "apps/desktop-ui-e2e",
      "sourceRoot": "apps/desktop-ui-e2e/src",
      "projectType": "application",
      "targets": {
        "e2e": {
          "executor": "@nrwl/cypress:cypress",
          "options": {
            "cypressConfig": "apps/desktop-ui-e2e/cypress.json",
            "tsConfig": "apps/desktop-ui-e2e/tsconfig.e2e.json",
            "devServerTarget": "desktop-ui:serve"
          },
          "configurations": {
            "production": {
              "devServerTarget": "desktop-ui:serve:production"
            }
          }
        },
        "lint": {
          "executor": "@nrwl/linter:eslint",
          "options": {
            "lintFilePatterns": [
              "apps/desktop-ui-e2e/**/*.{js,ts}"
            ]
          }
        }
      }
    },
    "desktop": {
      "root": "apps/desktop",
      "sourceRoot": "apps/desktop/src",
      "projectType": "application",
      "prefix": "desktop",
      "targets": {
        "build": {
          "executor": "nx-electron:build",
          "options": {
            "outputPath": "dist/apps/desktop",
            "main": "apps/desktop/src/main.ts",
            "tsConfig": "apps/desktop/tsconfig.app.json",
            "assets": [
              "apps/desktop/src/assets"
            ]
          },
          "configurations": {
            "production": {
              "optimization": true,
              "extractLicenses": true,
              "inspect": false,
              "fileReplacements": [
                {
                  "replace": "apps/desktop/src/environments/environment.ts",
                  "with": "apps/desktop/src/environments/environment.prod.ts"
                }
              ]
            }
          }
        },
        "serve": {
          "executor": "nx-electron:execute",
          "options": {
            "buildTarget": "desktop:build"
          }
        },
        "package": {
          "executor": "nx-electron:package",
          "options": {
            "name": "desktop",
            "frontendProject": "desktop-ui",
            "outputPath": "dist/packages",
            "prepackageOnly": true
          }
        },
        "make": {
          "executor": "nx-electron:make",
          "options": {
            "name": "desktop",
            "frontendProject": "desktop-ui",
            "outputPath": "dist/executables"
          }
        },
        "lint": {
          "executor": "@nrwl/linter:eslint",
          "options": {
            "lintFilePatterns": [
              "apps/desktop/**/*.ts"
            ]
          }
        },
        "test": {
          "executor": "@nrwl/jest:jest",
          "outputs": [
            "coverage/apps/desktop"
          ],
          "options": {
            "jestConfig": "apps/desktop/jest.config.js",
            "passWithNoTests": true
          }
        }
      }
    }
  },
  "cli": {
    "defaultCollection": "@nrwl/react"
  },
  "defaultProject": "mobile",
  "generators": {
    "@nrwl/react": {
      "application": {
        "style": "scss",
        "linter": "eslint",
        "babel": true
      },
      "component": {
        "style": "scss"
      },
      "library": {
        "style": "scss",
        "linter": "eslint"
      }
    }
  }
}
